Tutorial 2: Making a simple occurrence plot
…
Step 2: Working with spatial data

The very first thing we need to do is load the data that we generated from the first tutorial. We can just read it in using read_ebd from awk like so

house <- read_ebd("./data/house_sparrow_test.txt", unique = TRUE, rollup = FALSE)

Next we need to convert this object, which is currently a data.frame object into a spatial object. There is a rich amount of spatial data analysis in R and lots of resources online - see the end of the tutorial for more. Here we will use sf or ‘simple features’ a package that is designed to simplify using spatial data.

Have a look at the house data.frame you have read in. It has a lot of information and we do not need all of it here. First let’s simplify the data so that we can extract the columns containing the common name, the latitude and the longitude of the sampling site. We will do this using the select command from dplyr.

house %>%
  dplyr::select(common_name, latitude, longitude)

# A tibble: 97,611 × 3
   common_name   latitude longitude
   <chr>            <dbl>     <dbl>
 1 House Sparrow     54.7     -5.69
 2 House Sparrow     54.0     -1.24
 3 House Sparrow     54.7     -5.69
 4 House Sparrow     50.7     -1.75
 5 House Sparrow     54.7     -5.69
 6 House Sparrow     53.4     -2.12
 7 House Sparrow     53.2     -2.89
 8 House Sparrow     54.7     -5.69
 9 House Sparrow     55.2     -1.50
10 House Sparrow     52.7      1.41
# … with 97,601 more rows

Running this line does exactly what we wanted - it extracts our selected columns. If you’re not familiar with %>%, it’s a pipe that basically sends the output of the house object to the select command. For more on this and other ways to use dplyr see here.

Now one thing you might notice is that this select command produces >97,000 observations. This is a lot and will be a nightmare to plot, so lets add another command which will subsample our data down to a fraction of its size.

house %>%
  dplyr::select(common_name, latitude, longitude) %>%
  sample_frac(0.1)

# A tibble: 9,761 × 3
   common_name   latitude longitude
   <chr>            <dbl>     <dbl>
 1 House Sparrow     52.5    0.0444
 2 House Sparrow     55.5   -4.62  
 3 House Sparrow     52.0    1.15  
 4 House Sparrow     55.0   -1.64  
 5 House Sparrow     51.6   -0.828 
 6 House Sparrow     53.3   -2.50  
 7 House Sparrow     55.6   -4.64  
 8 House Sparrow     55.8   -4.62  
 9 House Sparrow     55.6   -4.64  
10 House Sparrow     53.1   -1.74  
# … with 9,751 more rows
…
NB: when working with your own data, you may not need to run this. Here we subsampled the data simply because the house sparrow is so widespread, populous and common but if you were to work on an extremely rare species, like some of these sad examples you wouldn’t need to do so because there are fewer than 200 individuals and likely only a handful of sightings, if any.

Finally we need to run a command in order to convert from a data.frame to a spatial feature.

house %>%
  dplyr::select(common_name, latitude, longitude) %>%
  sample_frac(0.1) %>%
  st_as_sf(coords = c("longitude", "latitude"), crs = 4236)

Simple feature collection with 9761 features and 1 field
Geometry type: POINT
Dimension:     XY
Bounding box:  xmin: -7.600007 ymin: 49.89156 xmax: 1.756268 ymax: 60.8094
Geodetic CRS:  Hu Tzu Shan 1950
# A tibble: 9,761 × 2
   common_name                geometry
 * <chr>                   <POINT [°]>
 1 House Sparrow  (-4.636236 55.55115)
 2 House Sparrow  (-2.186861 53.46492)
 3 House Sparrow  (-1.962631 53.46515)
 4 House Sparrow  (-4.634349 55.54936)
 5 House Sparrow   (-5.20627 49.95964)
 6 House Sparrow  (0.0213718 52.92948)
 7 House Sparrow  (-2.964055 51.54284)
 8 House Sparrow (-0.1479596 51.38058)
 9 House Sparrow  (-7.402477 57.18821)
10 House Sparrow    (1.39432 51.15726)
# … with 9,751 more rows
…
